STA 3386 Regression Analysis - 24 Logistic Regression in Tidymodels
…
For X3 being a 1 (lower class), we expect a 36% increase in the odds of the disease being present, given the other predictors are held constant.

For X4 being a 1 (sector 2), we expect 79% decrease in the odds of the disease being present, given the other predictors are held constant.

With the predict function, we can obtain the predicted probabilities of the fitted model.

24.3 Predictions

pred_prob = predict(fit,
                    new_data = dat,
                    type = "prob")

pred_prob

# A tibble: 98 × 2
   .pred_1 .pred_0
     <dbl>   <dbl>
 1  0.209    0.791
 2  0.219    0.781
 3  0.106    0.894
 4  0.371    0.629
 5  0.111    0.889
 6  0.136    0.864
 7  0.0802   0.920
 8  0.273    0.727
 9  0.244    0.756
10  0.309    0.691
# ℹ 88 more rows

If we classify each observation based on which in the most likely prediction, we can obtain the predicted outcomes.

pred_class = predict(fit,
                    new_data = dat,
                    type = "class")

pred_class

# A tibble: 98 × 1
   .pred_class
   <fct>      
 1 0          
 2 0          
 3 0          
 4 0          
 5 0          
 6 0          
 7 0          
 8 0          
 9 0          
10 0          
# ℹ 88 more rows
…
