STA 3386 Regression Analysis - 25 Multinomial Logistic Regression and Poisson Regression
…
fit |> tidy()

# A tibble: 6 × 5
  term          estimate  std.error statistic  p.value
  <chr>            <dbl>      <dbl>     <dbl>    <dbl>
1 (Intercept)  2.94      0.207          14.2  9.47e-46
2 X1           0.000606  0.000142        4.26 2.02e- 5
3 X2          -0.0000117 0.00000211     -5.53 3.13e- 8
4 X3          -0.00373   0.00178        -2.09 3.65e- 2
5 X4           0.168     0.0258          6.53 6.39e-11
6 X5          -0.129     0.0162         -7.95 1.89e-15

fit |> predict(new_data = dat)

# A tibble: 110 × 1
   .pred
   <dbl>
 1 12.3 
 2  8.77
 3 28.1 
 4  8.41
 5  7.26
 6  8.88
 7  4.30
 8 11.0 
 9 14.4 
10 11.6 
# ℹ 100 more rows
…
